…
The complexity of the algorithm depends primarily on the complexity of `capa`,
which is detailed in Fisch, Eckley and Fearnhead. On a 15.5 million samples EEG
record with 8 channels, corresponding to a full night of sleep, artifact
detection with a `step_size` parameter of `30 * 5` seconds (each five epoch
period was independently analyzed ) took on average ≈ 8.6 minutes. The
specifications for one of these tests is given below for reference.

```
========================================================================= 
R Version: 4.2.2 Patched (2022-11-10 r83330) 
Operating System: Linux 6.2.0-34-generic #34-Ubuntu SMP PREEMPT_DYNAMIC Mon Sep 4 13:06:55 UTC 2023 
Base Packages: stats graphics grDevices utils datasets methods base Other Packages: forcats_1.0.0 stringr_1.5.0 purrr_1.0.1 readr_2.1.4 tidyr_1.3.0 tibble_3.2.1 ggplot2_3.4.2 tidyverse_1.3.2 dplyr_1.1.2 logr_1.3.4 
========================================================================= 

# A tibble: 15,562,500 × 11
    Time Epoch Subepoch `F3-A2` `F4-A1` `C3-A2` `C4-A1` `O1-A2` `O2-A1` `LOC-A2`
   <dbl> <fct> <fct>      <dbl>   <dbl>   <dbl>   <dbl>   <dbl>   <dbl>    <dbl>
 1 0     1     1        0.00478 0.00478 0.00478 0.00478 0.00478 0.00478  0.00478
 2 0.002 1     1        0.00478 0.00478 0.00478 0.00478 0.00478 0.00478  0.00478
 3 0.004 1     1        0.00478 0.00478 0.00478 0.00478 0.00478 0.00478  0.00478
 4 0.006 1     1        0.00478 0.00478 0.00478 0.00478 0.00478 0.00478  0.00478
 5 0.008 1     1        0.00478 0.00478 0.00478 0.00478 0.00478 0.00478  0.00478
 6 0.01  1     1        0.00478 0.00478 0.00478 0.00478 0.00478 0.00478  0.00478
 7 0.012 1     1        0.00478 0.00478 0.00478 0.00478 0.00478 0.00478  0.00478
 8 0.014 1     1        0.00478 0.00478 0.00478 0.00478 0.00478 0.00478  0.00478
 9 0.016 1     1        0.00478 0.00478 0.00478 0.00478 0.00478 0.00478  0.00478
10 0.018 1     1        0.00478 0.00478 0.00478 0.00478 0.00478 0.00478  0.00478
# ℹ 15,562,490 more rows
# ℹ 1 more variable: `ROC-A2` <dbl>
…
